"Minehead: Self Catered, Blueskies Apartment",http://jabberspan6759.bitbucket.org/minehead-self-catered-blueskies-apartment.html,836
"Bognor Regis: Self Catered, Standard Apartment",http://jabberspan6759.bitbucket.org/bognor-regis-self-catered-standard-apartment.html,836
"Minehead: Self Catered, Chalet Apartment",http://jabberspan6759.bitbucket.org/minehead-self-catered-chalet-apartment.html,836
"Bognor Regis: Self Catered, Deluxe Apartment",http://jabberspan6759.bitbucket.org/bognor-regis-self-catered-deluxe-apartment.html,836
"Bognor Regis: Self Catered, Silver Apartment",http://jabberspan6759.bitbucket.org/bognor-regis-self-catered-silver-apartment.html,836
"Skegness: Self Catered, Seaside Apartment",http://jabberspan6759.bitbucket.org/skegness-self-catered-seaside-apartment.html,836
"Skegness: Self Catered, Gold Apartment",http://jabberspan6759.bitbucket.org/skegness-self-catered-gold-apartment.html,836
"Bognor Regis: Room Only, Deluxe Room",http://jabberspan6759.bitbucket.org/bognor-regis-room-only-deluxe-room.html,836
"Skegness: Self Catered, Silver Apartment",http://jabberspan6759.bitbucket.org/skegness-self-catered-silver-apartment.html,836
"Minehead: Room Only, Deluxe Room",http://jabberspan6759.bitbucket.org/minehead-room-only-deluxe-room.html,836
"Bognor Regis: Self Catered, Gold Apartment",http://jabberspan6759.bitbucket.org/bognor-regis-self-catered-gold-apartment.html,836
"Skegness: Self Catered, Standard Apartment",http://jabberspan6759.bitbucket.org/skegness-self-catered-standard-apartment.html,836
"Minehead: Self Catered, Deluxe Apartment",http://jabberspan6759.bitbucket.org/minehead-self-catered-deluxe-apartment.html,836
"Skegness: Room Only, Silver Room",http://jabberspan6759.bitbucket.org/skegness-room-only-silver-room.html,836
"Minehead: Self Catered, Gold Apartment",http://jabberspan6759.bitbucket.org/minehead-self-catered-gold-apartment.html,836
"Minehead: Self Catered, Silver Bungalow Apartment",http://jabberspan6759.bitbucket.org/minehead-self-catered-silver-bungalow-apartment.html,836
"Skegness: Room Only, Standard Room",http://jabberspan6759.bitbucket.org/skegness-room-only-standard-room.html,836
"Minehead: Room Only, Standard Room",http://jabberspan6759.bitbucket.org/minehead-room-only-standard-room.html,836
"Minehead: Room Only, Silver Room",http://jabberspan6759.bitbucket.org/minehead-room-only-silver-room.html,836
"Bognor Regis: Shoreline Hotel Room",http://jabberspan6759.bitbucket.org/bognor-regis-shoreline-hotel-room.html,836
"Minehead: Self Catered, Silver Apartment",http://jabberspan6759.bitbucket.org/minehead-self-catered-silver-apartment.html,836
"Minehead: Room Only, Silver Plus Room",http://jabberspan6759.bitbucket.org/minehead-room-only-silver-plus-room.html,836
"Minehead: Self Catered, Standard Apartment",http://jabberspan6759.bitbucket.org/minehead-self-catered-standard-apartment.html,836
"Bognor Regis: Room Only, Silver Room",http://jabberspan6759.bitbucket.org/bognor-regis-room-only-silver-room.html,836
"Bognor Regis: Ocean Hotel Room",http://jabberspan6759.bitbucket.org/bognor-regis-ocean-hotel-room.html,836
"Bognor Regis: Wave Hotel Room",http://jabberspan6759.bitbucket.org/bognor-regis-wave-hotel-room.html,836
